{ "event" : { "name" : "disk space",
      "vset" : { "unit" : { "free" : "MB",
              "used" : "MB"
            },
          "value" : { "free" : 6203,
              "used" : 26565
            }
        }
    },
  "location" : { "disk" : "/var/log",
      "host" : "web01.example.net"
    },
  "time" : 1400015276,
  "v" : 4
}
